%YAML 1.1
%TAG !u! tag:unity3d.com,2011:
--- !u!1001 &4244970648262827059
PrefabInstance:
  m_ObjectHideFlags: 0
  serializedVersion: 2
  m_Modification:
    m_TransformParent: {fileID: 0}
    m_Modifications:
    - target: {fileID: 60908600690981482, guid: a0b36c74445e0ae43ad4dc4af3f0eb15,
        type: 3}
      propertyPath: m_RootOrder
      value: 0
      objectReference: {fileID: 0}
    - target: {fileID: 60908600690981482, guid: a0b36c74445e0ae43ad4dc4af3f0eb15,
        type: 3}
      propertyPath: m_LocalScale.x
      value: 5.058722
      objectReference: {fileID: 0}
    - target: {fileID: 60908600690981482, guid: a0b36c74445e0ae43ad4dc4af3f0eb15,
        type: 3}
      propertyPath: m_LocalScale.y
      value: 0.46650836
      objectReference: {fileID: 0}
    - target: {fileID: 60908600690981482, guid: a0b36c74445e0ae43ad4dc4af3f0eb15,
        type: 3}
      propertyPath: m_LocalPosition.x
      value: -21.2232
      objectReference: {fileID: 0}
    - target: {fileID: 60908600690981482, guid: a0b36c74445e0ae43ad4dc4af3f0eb15,
        type: 3}
      propertyPath: m_LocalPosition.y
      value: 0.1933
      objectReference: {fileID: 0}
    - target: {fileID: 60908600690981482, guid: a0b36c74445e0ae43ad4dc4af3f0eb15,
        type: 3}
      propertyPath: m_LocalPosition.z
      value: -1.45
      objectReference: {fileID: 0}
    - target: {fileID: 60908600690981482, guid: a0b36c74445e0ae43ad4dc4af3f0eb15,
        type: 3}
      propertyPath: m_LocalRotation.w
      value: 1
      objectReference: {fileID: 0}
    - target: {fileID: 60908600690981482, guid: a0b36c74445e0ae43ad4dc4af3f0eb15,
        type: 3}
      propertyPath: m_LocalRotation.x
      value: 0
      objectReference: {fileID: 0}
    - target: {fileID: 60908600690981482, guid: a0b36c74445e0ae43ad4dc4af3f0eb15,
        type: 3}
      propertyPath: m_LocalRotation.y
      value: 0
      objectReference: {fileID: 0}
    - target: {fileID: 60908600690981482, guid: a0b36c74445e0ae43ad4dc4af3f0eb15,
        type: 3}
      propertyPath: m_LocalRotation.z
      value: 0
      objectReference: {fileID: 0}
    - target: {fileID: 60908600690981482, guid: a0b36c74445e0ae43ad4dc4af3f0eb15,
        type: 3}
      propertyPath: m_LocalEulerAnglesHint.x
      value: 0
      objectReference: {fileID: 0}
    - target: {fileID: 60908600690981482, guid: a0b36c74445e0ae43ad4dc4af3f0eb15,
        type: 3}
      propertyPath: m_LocalEulerAnglesHint.y
      value: 0
      objectReference: {fileID: 0}
    - target: {fileID: 60908600690981482, guid: a0b36c74445e0ae43ad4dc4af3f0eb15,
        type: 3}
      propertyPath: m_LocalEulerAnglesHint.z
      value: 0
      objectReference: {fileID: 0}
    - target: {fileID: 5238575588304067532, guid: a0b36c74445e0ae43ad4dc4af3f0eb15,
        type: 3}
      propertyPath: m_Name
      value: Pared horizontal Mitad Variant
      objectReference: {fileID: 0}
    m_RemovedComponents: []
  m_SourcePrefab: {fileID: 100100000, guid: a0b36c74445e0ae43ad4dc4af3f0eb15, type: 3}
