%YAML 1.1
%TAG !u! tag:unity3d.com,2011:
--- !u!1001 &4352823793117116041
PrefabInstance:
  m_ObjectHideFlags: 0
  serializedVersion: 2
  m_Modification:
    m_TransformParent: {fileID: 0}
    m_Modifications:
    - target: {fileID: 60908600690981482, guid: a0b36c74445e0ae43ad4dc4af3f0eb15,
        type: 3}
      propertyPath: m_RootOrder
      value: 0
      objectReference: {fileID: 0}
    - target: {fileID: 60908600690981482, guid: a0b36c74445e0ae43ad4dc4af3f0eb15,
        type: 3}
      propertyPath: m_LocalScale.x
      value: 4.9616823
      objectReference: {fileID: 0}
    - target: {fileID: 60908600690981482, guid: a0b36c74445e0ae43ad4dc4af3f0eb15,
        type: 3}
      propertyPath: m_LocalPosition.x
      value: -21.136
      objectReference: {fileID: 0}
    - target: {fileID: 60908600690981482, guid: a0b36c74445e0ae43ad4dc4af3f0eb15,
        type: 3}
      propertyPath: m_LocalPosition.y
      value: 0.47
      objectReference: {fileID: 0}
    - target: {fileID: 60908600690981482, guid: a0b36c74445e0ae43ad4dc4af3f0eb15,
        type: 3}
      propertyPath: m_LocalPosition.z
      value: -3.52
      objectReference: {fileID: 0}
    - target: {fileID: 60908600690981482, guid: a0b36c74445e0ae43ad4dc4af3f0eb15,
        type: 3}
      propertyPath: m_LocalRotation.w
      value: 1
      objectReference: {fileID: 0}
    - target: {fileID: 60908600690981482, guid: a0b36c74445e0ae43ad4dc4af3f0eb15,
        type: 3}
      propertyPath: m_LocalRotation.x
      value: 0
      objectReference: {fileID: 0}
    - target: {fileID: 60908600690981482, guid: a0b36c74445e0ae43ad4dc4af3f0eb15,
        type: 3}
      propertyPath: m_LocalRotation.y
      value: 0
      objectReference: {fileID: 0}
    - target: {fileID: 60908600690981482, guid: a0b36c74445e0ae43ad4dc4af3f0eb15,
        type: 3}
      propertyPath: m_LocalRotation.z
      value: 0
      objectReference: {fileID: 0}
    - target: {fileID: 60908600690981482, guid: a0b36c74445e0ae43ad4dc4af3f0eb15,
        type: 3}
      propertyPath: m_LocalEulerAnglesHint.x
      value: 0
      objectReference: {fileID: 0}
    - target: {fileID: 60908600690981482, guid: a0b36c74445e0ae43ad4dc4af3f0eb15,
        type: 3}
      propertyPath: m_LocalEulerAnglesHint.y
      value: 0
      objectReference: {fileID: 0}
    - target: {fileID: 60908600690981482, guid: a0b36c74445e0ae43ad4dc4af3f0eb15,
        type: 3}
      propertyPath: m_LocalEulerAnglesHint.z
      value: 0
      objectReference: {fileID: 0}
    - target: {fileID: 5238575588304067532, guid: a0b36c74445e0ae43ad4dc4af3f0eb15,
        type: 3}
      propertyPath: m_Name
      value: "Pared horizontal peque\xF1in Variant"
      objectReference: {fileID: 0}
    m_RemovedComponents: []
  m_SourcePrefab: {fileID: 100100000, guid: a0b36c74445e0ae43ad4dc4af3f0eb15, type: 3}
