%YAML 1.1
%TAG !u! tag:unity3d.com,2011:
--- !u!21 &2100000
Material:
  serializedVersion: 6
  m_ObjectHideFlags: 0
  m_CorrespondingSourceObject: {fileID: 0}
  m_PrefabInstance: {fileID: 0}
  m_PrefabAsset: {fileID: 0}
  m_Name: Glow Particles - Door
  m_Shader: {fileID: -6465566751694194690, guid: e1ecd8b0971d5134db3d98d49e5084f2,
    type: 3}
  m_ShaderKeywords: 
  m_LightmapFlags: 4
  m_EnableInstancingVariants: 1
  m_DoubleSidedGI: 0
  m_CustomRenderQueue: -1
  stringTagMap: {}
  disabledShaderPasses: []
  m_SavedProperties:
    serializedVersion: 3
    m_TexEnvs:
    - _MainText:
        m_Texture: {fileID: 2800000, guid: 8e53f540b15f5f04bab1886963e63b59, type: 3}
        m_Scale: {x: 1, y: 1}
        m_Offset: {x: 0, y: 0}
    - _SampleTexture2D_EE1619A7_Texture_1:
        m_Texture: {fileID: 2800000, guid: 7c80f8184e4ee814e925df1d105945ba, type: 3}
        m_Scale: {x: 1, y: 1}
        m_Offset: {x: 0, y: 0}
    m_Floats: []
    m_Colors:
    - Color_C08C56B3: {r: 4, g: 0.28235295, b: 0, a: 0}
  m_BuildTextureStacks: []
